Workflow to access and format A20 metadata with R – andrew-1234
…
combined <- hoot_v2 %>% left_join(metadata, by = ("point_id"))
#write.csv(combined,"output/hoot_final.csv", row.names = FALSE)

In progress

Data exploration

Check presence/absence for each point ID.

combined$Powerful.owl <- as.factor(x = combined$Powerful.owl)
combined %>%
  group_by(point_id) %>%
  count(Powerful.owl) 

## # A tibble: 48 × 3
## # Groups:   point_id [37]
##    point_id Powerful.owl     n
##    <chr>    <fct>        <int>
##  1 217      NO            1867
##  2 217      YES              3
##  3 218      NO            1457
##  4 219      NO             999
##  5 220      NO            1955
##  6 25       NO            1270
##  7 253      NO             862
##  8 253      YES             13
##  9 254      NO             522
## 10 254      YES             16
## # … with 38 more rows
…
